<!-- Generated by IcoMoon.io -->
<svg version="1.1" xmlns="http://www.w3.org/2000/svg" width="32" height="32" viewBox="0 0 32 32">
<title>play-button</title>
<path d="M24.3 15.559l-11.733-8c-0.164-0.111-0.375-0.123-0.55-0.031s-0.284 0.274-0.284 0.471v16c0 0.198 0.109 0.379 0.284 0.471 0.078 0.042 0.164 0.062 0.249 0.062 0.105 0 0.21-0.031 0.3-0.093l11.733-8c0.146-0.099 0.233-0.264 0.233-0.441s-0.087-0.341-0.233-0.441zM12.8 22.99v-13.981l10.253 6.99-10.253 6.99z"></path>
<path d="M16 0c-8.822 0-16 7.178-16 16s7.178 16 16 16 16-7.178 16-16-7.178-16-16-16zM16 30.933c-8.234 0-14.933-6.699-14.933-14.933s6.699-14.933 14.933-14.933 14.933 6.699 14.933 14.933-6.699 14.933-14.933 14.933z"></path>
</svg>
